<?xml version="1.0" encoding="utf-8"?>
<!-- Generator: Adobe Illustrator 15.0.2, SVG Export Plug-In . SVG Version: 6.00 Build 0)  -->
<!DOCTYPE svg PUBLIC "-//W3C//DTD SVG 1.1//EN" "http://www.w3.org/Graphics/SVG/1.1/DTD/svg11.dtd">
<svg version="1.1" id="Layer_1" xmlns="http://www.w3.org/2000/svg" xmlns:xlink="http://www.w3.org/1999/xlink" x="0px" y="0px"
	 width="15px" height="28px" viewBox="6.5 -6.5 15 28" enable-background="new 6.5 -6.5 15 28" xml:space="preserve">
<path d="M7.629-3.56L18.688,7.5L7.629,18.56c-0.469,0.468-0.469,1.17,0,1.639c0.468,0.468,1.17,0.468,1.639,0L21.146,8.319
	c0.234-0.234,0.352-0.527,0.352-0.82c0-0.292-0.117-0.585-0.352-0.819L9.268-5.198c-0.469-0.469-1.171-0.469-1.639,0
	C7.161-4.73,7.161-3.97,7.629-3.56z"/>
</svg>
