<?xml version="1.0" encoding="utf-8"?>
<!-- Generator: Adobe Illustrator 19.2.0, SVG Export Plug-In . SVG Version: 6.00 Build 0)  -->
<svg version="1.1" id="Слой_1" xmlns="http://www.w3.org/2000/svg" xmlns:xlink="http://www.w3.org/1999/xlink" x="0px" y="0px"
	 viewBox="0 0 376.9 508" fill="#dd6262" style="enable-background:new 0 0 376.9 508;" xml:space="preserve">

<path d="M16.4,16.4h344.1v475.2h0.1H16.4V16.4z M0,508h376.9V0H0V508z"/>
<rect x="49.2" y="292.8" width="278.6" height="16.4"/>
<rect x="49.2" y="358.4" width="278.6" height="16.4"/>
<rect x="49.2" y="423.9" width="278.6" height="16.4"/>
<g>
	<defs>
		<rect id="SVGID_1_" width="376.9" height="508"/>
	</defs>
	<clipPath id="SVGID_2_">
		<use xlink:href="#SVGID_1_"  style="overflow:visible;"/>
	</clipPath>
	<path class="st0" d="M51.3,218.4h27.4C80.8,234,94.2,246,110.4,246c16.2,0,29.6-12,31.8-27.6H235c2.2,15.6,15.6,27.6,31.8,27.6
		c16.2,0,29.6-12,31.8-27.6h28V176c0-24.3-19.7-44-44-44h-12.8c-10.9-40.8-47.5-69-90-69c-42.6,0-79.1,28.2-90,69H74.2
		c-12.7,0-23,10.3-23,23V218.4z M160.4,74.5V132H99.3C108.1,102.8,131.4,81.2,160.4,74.5 M260.2,132h-90.6V72.9
		c3.4-0.4,6.7-0.7,10.2-0.7C217.3,72.2,249.5,96.5,260.2,132 M317.2,172.4h-9c-2.5,0-4.6-2.1-4.6-4.6c0-2.5,2.1-4.6,4.6-4.6h6.7
		C316.1,166.1,316.9,169.2,317.2,172.4 M243.8,213.9c0-12.7,10.3-23,23-23c12.7,0,23,10.3,23,23s-10.3,23-23,23
		C254.1,236.8,243.8,226.5,243.8,213.9 M87.4,213.9c0-12.7,10.3-23,23-23s23,10.3,23,23s-10.3,23-23,23S87.4,226.5,87.4,213.9
		 M60.5,209.2V155c0-7.6,6.2-13.8,13.8-13.8h208.3c10.8,0,20.5,5,26.9,12.8h-1.4c-7.6,0-13.9,6.1-13.9,13.8
		c0,7.6,6.2,13.8,13.8,13.8h9.2v27.6h-18.8c-2.2-15.6-15.6-27.6-31.8-27.6c-16.2,0-29.6,12-31.8,27.6h-92.7
		c-2.2-15.6-15.6-27.6-31.8-27.6c-16.2,0-29.6,12-31.8,27.6H60.5L60.5,209.2z"/>
	<path class="st1" d="M51.3,218.4h27.4C80.8,234,94.2,246,110.4,246c16.2,0,29.6-12,31.8-27.6H235c2.2,15.6,15.6,27.6,31.8,27.6
		c16.2,0,29.6-12,31.8-27.6h28V176c0-24.3-19.7-44-44-44h-12.8c-10.9-40.8-47.5-69-90-69c-42.6,0-79.1,28.2-90,69H74.2
		c-12.7,0-23,10.3-23,23V218.4z M160.4,74.5V132H99.3C108.1,102.8,131.4,81.2,160.4,74.5z M260.2,132h-90.6V72.9
		c3.4-0.4,6.7-0.7,10.2-0.7C217.3,72.2,249.5,96.5,260.2,132z M317.2,172.4h-9c-2.5,0-4.6-2.1-4.6-4.6c0-2.5,2.1-4.6,4.6-4.6h6.7
		C316.1,166.1,316.9,169.2,317.2,172.4z M243.8,213.9c0-12.7,10.3-23,23-23c12.7,0,23,10.3,23,23s-10.3,23-23,23
		C254.1,236.8,243.8,226.5,243.8,213.9z M87.4,213.9c0-12.7,10.3-23,23-23s23,10.3,23,23s-10.3,23-23,23S87.4,226.5,87.4,213.9z
		 M60.5,209.2V155c0-7.6,6.2-13.8,13.8-13.8h208.3c10.8,0,20.5,5,26.9,12.8h-1.4c-7.6,0-13.9,6.1-13.9,13.8
		c0,7.6,6.2,13.8,13.8,13.8h9.2v27.6h-18.8c-2.2-15.6-15.6-27.6-31.8-27.6c-16.2,0-29.6,12-31.8,27.6h-92.7
		c-2.2-15.6-15.6-27.6-31.8-27.6c-16.2,0-29.6,12-31.8,27.6H60.5L60.5,209.2z"/>
	<rect x="179.8" y="154" class="st0" width="18.1" height="9.2"/>
	<rect x="179.8" y="154" class="st1" width="18.1" height="9.2"/>
</g>
</svg>
